{
    "app-id": "org.karapulse.KarapulseDevel",
    "runtime": "org.gnome.Platform",
    "runtime-version": "45",
    "sdk": "org.gnome.Sdk",
    "sdk-extensions": [
        "org.freedesktop.Sdk.Extension.rust-stable"
    ],
    "command": "karapulse",
    "tags": [
        "nightly"
    ],
    "desktop-file-name-suffix": " (Devel)",
    "finish-args": [
        "--filesystem=host",
        "--share=ipc",
        "--share=network",
        "--socket=x11",
        "--socket=wayland",
        "--socket=pulseaudio",
        "--device=dri",
        "--device=all"
    ],
    "cleanup": [
        "/sdk",
        "/lib/node_modules",
        "/bin/npm",
        "/bin/node",
        "/bin/npx",
        "/lib/libgst*",
        "/pkgconfig",
        "/share/gstreamer-1.0",
        "/lib/pkgconfig",
        "/include",
        "/bin/gst-*",
        "/bin/qrencode"
    ],
    "build-options": {
        "append-path": "/usr/lib/sdk/rust-stable/bin:/app/sdk/bin",
        "env": {
            "RUSTFLAGS": "--remap-path-prefix =../",
            "CARGO_HOME": "/run/build/karapulse/cargo",
            "RUST_BACKTRACE": "1",
            "RUST_LOG": "karapulse=debug"
        }
    },
    "modules": [
        {
            "name": "nodejs",
            "buildsystem": "simple",
            "sources": [
                {
                    "type": "archive",
                    "only-arches": [
                        "x86_64"
                    ],
                    "url": "https://nodejs.org/dist/v18.12.1/node-v18.12.1-linux-x64.tar.xz",
                    "sha256": "4481a34bf32ddb9a9ff9540338539401320e8c3628af39929b4211ea3552a19e"
                },
                {
                    "type": "archive",
                    "only-arches": [
                        "aarch64"
                    ],
                    "url": "https://nodejs.org/dist/v18.12.1/node-v18.12.1-linux-arm64.tar.xz",
                    "sha256": "3904869935b7ecc51130b4b86486d2356539a174d11c9181180cab649f32cd2a"
                }
            ],
            "build-commands": [
                "mkdir /app/sdk ; cp -r * /app/sdk/"
            ]
        },
        {
            "name": "qrencode",
            "buildsystem": "autotools",
            "sources": [
                {
                    "type": "archive",
                    "url": "https://fukuchi.org/works/qrencode/qrencode-4.1.1.tar.gz",
                    "sha512": "209bb656ae3f391b03c7b3ceb03e34f7320b0105babf48b619e7a299528b8828449e0e7696f0b5db0d99170a81709d0518e34835229a748701e7df784e58a9ce"
                }
            ]
        },
        {
            "name": "gstqroverlay",
            "buildsystem": "meson",
            "config-opts": [
                "--auto-features=disabled",
                "-Dqroverlay=enabled"
            ],
            "sources": [
                {
                    "type": "archive",
                    "url": "https://gstreamer.freedesktop.org/src/gst-plugins-bad/gst-plugins-bad-1.20.5.tar.xz",
                    "sha256": "f431214b0754d7037adcde93c3195106196588973e5b32dcb24938805f866363"
                }
            ]
        },
        {
            "name": "karapulse",
            "buildsystem": "meson",
            "config-opts": [
                "-Dprofile=development",
                "-Dcdg-plugin=true",
                "-Dnpm-cache=/run/build/karapulse/npm-cache/",
                "-Doffline=true"
            ],
            "sources": [
                "npm-generated-sources.json",
                "cargo-generated-sources.json",
                {
                    "type": "dir",
                    "path": "../"
                }
            ]
        }
    ]
}